CS544 project
…
df %>% group_by(Cause) %>% summarise(
  death = mean(Fatalities),
  victim = mean(Total_vicitimes)
) %>% arrange( desc(death, victim))

## # A tibble: 22 x 3
##    Cause                death victim
##    <chr>                <dbl>  <dbl>
##  1 robbery               9      9   
##  2 drunk                 7      9   
##  3 unemployement         6.6   10.4 
##  4 domestic disputer     6      6   
##  5 terrorism             5.33  12.8 
##  6 neighbors conflict    5      5   
##  7 religious radicalism  5      9   
##  8 Unknown               4.94  16.2 
##  9 psycho                4.4    8.32
## 10 business dispute      4      4   
## #  with 12 more rows
…
